{
  "name": "LHCbGrid",
  "version": "v14r2",
  "heptools" : {
    "binary_tag": "$CMTCONFIG",
    "version": "88",
    "packages": [
       ["xrootd", "4.5.0",
          ["bin","python","lib"]
       ]
     ]
  },
  "exttools" : {
    "binary_tag": "$CMTCONFIG",
    "packages": [
       ["arc", "15.03.14",
          ["bin","python","lib"]
       ],
       ["canl","2.2.8",
          ["bin","python","lib"]
       ],
       ["cream","1.16.2",
          ["bin","python","lib"]
       ],
       ["davix","0.6.7",
          ["bin","python","lib"]
       ],
       ["dcap","2.47.12",
          ["bin","python","lib"]
       ],
       ["dm-util","1.16.0-2",
          ["bin","python","lib"]
       ],
       ["DPM","1.9.2",
          ["bin","python","lib"]
       ],
       ["epel","20180129",
          ["bin","python","lib"]
       ],
       ["FTS3","3.7.8",
          ["bin","python","lib"]
       ],
       ["gfal2","2.15.4",
          ["bin","python","lib"],
          [["GFAL_PLUGIN_DIR","${GFAL2_HOME}/lib64/gfal2-plugins"],
           ["GFAL_CONFIG_DIR","${GFAL2_HOME}/etc/gfal2.d"]
          ]
       ],
       ["gridftp-ifce","2.3.1-1",
          ["bin","python","lib"]
       ],
       ["gridsite","2.3.4",
          ["bin","python","lib"]
       ],
       ["htcondor","8.6.9",
          ["bin","python","lib"]
       ],
       ["is-ifce","1.15.0-0",
          ["bin","python","lib"]
       ],
       ["lcg-dm-common","1.9.2",
          ["bin","python","lib"]
       ],
        ["mjf","0.0.2-2",
          ["bin","python","lib"]
       ],
       ["srm-ifce","1.24.3",
          ["bin","python","lib"]
       ],
       ["voms","2.0.14",
          ["bin","python","lib"]
       ],
       ["WMS","3.6.2",
          ["bin","python","lib"]
       ]      
    ]
  }
}